{
    "code": 0,
    "msg": "\u6210\u529f",
    "data": {
        "list": [
            {
                "id": 55,
                "status": 5,
                "name": "\u4e0d\u8981\u52a8",
                "description": "",
                "icon": "",
                "activity_id": 6,
                "begin_at": "2020-04-14 13:58:43",
                "end_at": "2020-04-16 13:58:43",
                "options": [],
                "activity_type": "\u4f1a\u5458\u9650\u5b9a\u5238",
                "h5_url": "",
                "jd_applet_url": "https:\/\/m.duanqu.com?_ariver_appid=3000000002403292&nbsv=0.0.26&nbsource=debug&nbsn=TRIAL&query=merchantNum%3D1900110%26activity_instance_id%3D55",
                "applet_url": "https:\/\/m.duanqu.com?_ariver_appid=3000000002403292&nbsv=0.0.26&nbsource=debug&nbsn=TRIAL&query=merchantNum%3D1900110%26activity_instance_id%3D55",
                "support_type": 0
            },
            {
                "id": 52,
                "status": 2,
                "name": "\u70ed\u533a\u4f4d\u7f6e",
                "description": "",
                "icon": "",
                "activity_id": 6,
                "begin_at": "2020-04-13 16:30:29",
                "end_at": "2020-04-14 16:31:19",
                "options": [],
                "activity_type": "\u4f1a\u5458\u9650\u5b9a\u5238",
                "h5_url": "",
                "applet_url": "https:\/\/m.duanqu.com?_ariver_appid=3000000002403292&nbsv=0.0.26&nbsource=debug&nbsn=TRIAL&query=merchantNum%3D1900110%26activity_instance_id%3D52",
                "support_type": 0
            },
            {
                "id": 51,
                "status": 2,
                "name": "case-\u52a8\u56fe",
                "description": "",
                "icon": "",
                "activity_id": 6,
                "begin_at": "2020-04-13 16:35:08",
                "end_at": "2020-04-15 16:35:10",
                "options": [],
                "activity_type": "\u4f1a\u5458\u9650\u5b9a\u5238",
                "h5_url": "",
                "applet_url": "https:\/\/m.duanqu.com?_ariver_appid=3000000002403292&nbsv=0.0.26&nbsource=debug&nbsn=TRIAL&query=merchantNum%3D1900110%26activity_instance_id%3D51",
                "support_type": 0
            },
            {
                "id": 49,
                "status": 2,
                "name": "\u56fe\u7247\u89c4\u5219",
                "description": "",
                "icon": "",
                "activity_id": 6,
                "begin_at": "2020-04-13 15:46:24",
                "end_at": "2020-04-15 15:46:29",
                "options": [],
                "activity_type": "\u4f1a\u5458\u9650\u5b9a\u5238",
                "h5_url": "",
                "applet_url": "https:\/\/m.duanqu.com?_ariver_appid=3000000002403292&nbsv=0.0.26&nbsource=debug&nbsn=TRIAL&query=merchantNum%3D1900110%26activity_instance_id%3D49",
                "support_type": 0
            },
            {
                "id": 47,
                "status": 4,
                "name": "\u6587\u5b57\u89c4\u5219002",
                "description": "",
                "icon": "",
                "activity_id": 6,
                "begin_at": "2020-04-13 15:43:27",
                "end_at": "2020-04-15 15:43:34",
                "options": [],
                "activity_type": "\u4f1a\u5458\u9650\u5b9a\u5238",
                "h5_url": "",
                "applet_url": "https:\/\/m.duanqu.com?_ariver_appid=3000000002403292&nbsv=0.0.26&nbsource=debug&nbsn=TRIAL&query=merchantNum%3D1900110%26activity_instance_id%3D47",
                "support_type": 0
            },
            {
                "id": 45,
                "status": 4,
                "name": "\u6587\u5b57\u5f0f",
                "description": "",
                "icon": "",
                "activity_id": 6,
                "begin_at": "2020-04-13 15:42:13",
                "end_at": "2020-04-13 15:42:17",
                "options": [],
                "activity_type": "\u4f1a\u5458\u9650\u5b9a\u5238",
                "h5_url": "",
                "applet_url": "https:\/\/m.duanqu.com?_ariver_appid=3000000002403292&nbsv=0.0.26&nbsource=debug&nbsn=TRIAL&query=merchantNum%3D1900110%26activity_instance_id%3D45",
                "support_type": 0
            },
            {
                "id": 44,
                "status": 5,
                "name": "1",
                "description": "",
                "icon": "",
                "activity_id": 6,
                "begin_at": "2020-04-13 15:11:56",
                "end_at": "2020-04-14 15:12:00",
                "options": [],
                "activity_type": "\u4f1a\u5458\u9650\u5b9a\u5238",
                "h5_url": "",
                "applet_url": "https:\/\/m.duanqu.com?_ariver_appid=3000000002403292&nbsv=0.0.26&nbsource=debug&nbsn=TRIAL&query=merchantNum%3D1900110%26activity_instance_id%3D44",
                "support_type": 0
            },
            {
                "id": 43,
                "status": 2,
                "name": "1",
                "description": "",
                "icon": "",
                "activity_id": 6,
                "begin_at": "2020-04-13 15:11:56",
                "end_at": "2020-04-14 15:12:00",
                "options": [],
                "activity_type": "\u4f1a\u5458\u9650\u5b9a\u5238",
                "h5_url": "",
                "applet_url": "https:\/\/m.duanqu.com?_ariver_appid=3000000002403292&nbsv=0.0.26&nbsource=debug&nbsn=TRIAL&query=merchantNum%3D1900110%26activity_instance_id%3D43",
                "support_type": 0
            },
            {
                "id": 42,
                "status": 5,
                "name": "case-\u4f1a\u5458\u7aef\u6d4b\u8bd5",
                "description": "",
                "icon": "",
                "activity_id": 6,
                "begin_at": "2020-04-13 15:24:22",
                "end_at": "2020-04-29 15:24:22",
                "options": [],
                "activity_type": "\u4f1a\u5458\u9650\u5b9a\u5238",
                "h5_url": "",
                "applet_url": "https:\/\/m.duanqu.com?_ariver_appid=3000000002403292&nbsv=0.0.26&nbsource=debug&nbsn=TRIAL&query=merchantNum%3D1900110%26activity_instance_id%3D42",
                "support_type": 0
            },
            {
                "id": 41,
                "status": 2,
                "name": "case-\u4f1a\u5458\u7aef\u6d4b\u8bd5",
                "description": "",
                "icon": "",
                "activity_id": 6,
                "begin_at": "2020-04-13 15:24:22",
                "end_at": "2020-04-29 15:24:22",
                "options": [],
                "activity_type": "\u4f1a\u5458\u9650\u5b9a\u5238",
                "h5_url": "",
                "applet_url": "https:\/\/m.duanqu.com?_ariver_appid=3000000002403292&nbsv=0.0.26&nbsource=debug&nbsn=TRIAL&query=merchantNum%3D1900110%26activity_instance_id%3D41",
                "support_type": 0
            }
        ],
        "total": 21,
        "page_size": 10,
        "page": 1,
        "last_page": 3
    },
    "sub_code": ""
}